refV = 3922
0,  37.00,  3093.44,  3707.81,  3369.50 
1,  47.00,  3093.31,  3707.31,  3369.56 
2,  87.50,  3094.69,  3709.38,  3369.06 
3,  124.56,  3093.06,  3709.81,  3369.31 
4,  164.31,  3095.19,  3711.06,  3368.50 
5,  202.31,  3095.50,  3710.50,  3369.12 
6,  241.69,  3094.88,  3708.56,  3368.56 
7,  281.69,  3096.12,  3710.56,  3368.44 
8,  321.56,  3096.44,  3710.81,  3369.62 
9,  361.12,  3096.06,  3712.00,  3368.62 
10,  401.06,  3098.50,  3711.62,  3368.00 
11,  438.56,  3103.31,  3712.69,  3369.19 
12,  476.94,  3102.81,  3712.44,  3368.75 
13,  515.69,  3101.06,  3713.00,  3367.94 
14,  553.12,  3102.56,  3713.94,  3369.25 
15,  592.38,  3101.31,  3712.44,  3368.06 
16,  630.19,  3102.31,  3713.00,  3366.50 
17,  669.94,  3102.81,  3713.00,  3367.56 
18,  710.25,  3102.38,  3712.44,  3367.81 
19,  749.56,  3103.56,  3713.31,  3367.50 
20,  790.12,  3104.00,  3712.75,  3367.62 
21,  828.69,  3104.31,  3713.19,  3367.81 
22,  866.75,  3105.00,  3712.75,  3366.81 
23,  904.00,  3105.44,  3713.69,  3367.38 
24,  939.94,  3105.69,  3714.00,  3366.31 
25,  977.62,  3107.31,  3713.94,  3366.06 
26,  1019.38,  3107.06,  3714.06,  3366.19 
27,  1060.31,  3108.12,  3712.50,  3365.75 
28,  1101.50,  3108.44,  3709.69,  3365.69 
29,  1140.75,  3108.38,  3710.69,  3365.88 
30,  1180.50,  3109.50,  3719.12,  3364.75 
31,  1219.25,  3111.12,  3719.25,  3366.31 
32,  1258.19,  3110.62,  3717.94,  3365.00 
33,  1293.69,  3111.62,  3718.25,  3364.62 
34,  1330.81,  3111.94,  3717.81,  3365.75 
35,  1368.06,  3112.75,  3718.56,  3364.62 
36,  1413.81,  3112.69,  3718.38,  3364.06 
37,  1452.56,  3113.62,  3717.38,  3364.00 
38,  1490.94,  3113.56,  3716.94,  3363.94 
39,  1531.06,  3115.12,  3715.69,  3363.69 
40,  1571.75,  3114.50,  3719.31,  3362.38 
41,  1610.19,  3113.56,  3718.69,  3362.56 
42,  1648.81,  3115.12,  3719.50,  3361.75 
43,  1684.62,  3115.88,  3720.50,  3363.31 
44,  1720.81,  3119.81,  3721.56,  3361.94 
45,  1759.38,  3118.44,  3721.50,  3361.81 
46,  1797.50,  3116.56,  3721.81,  3361.12 
47,  1838.12,  3118.31,  3720.75,  3360.19 
48,  1880.12,  3120.62,  3720.25,  3359.88 
49,  1921.25,  3121.06,  3722.31,  3360.31 
50,  1961.50,  3121.69,  3722.06,  3358.94 
51,  2002.12,  3121.88,  3722.50,  3358.62 
52,  2039.50,  3122.19,  3723.06,  3357.94 
53,  2075.44,  3126.44,  3723.94,  3357.06 
54,  2113.00,  3130.75,  3724.12,  3357.00 
55,  2150.25,  3128.44,  3724.12,  3355.44 
56,  2189.31,  3128.12,  3724.25,  3354.56 
57,  2230.38,  3129.62,  3725.50,  3354.25 
58,  2271.19,  3129.62,  3724.31,  3352.62 
59,  2311.69,  3129.12,  3724.50,  3350.19 
60,  2352.44,  3129.69,  3726.06,  3351.44 
61,  2389.06,  3129.38,  3726.69,  3349.25 
62,  2427.62,  3131.00,  3726.62,  3348.00 
63,  2462.88,  3131.50,  3727.38,  3347.12 
64,  2500.38,  3132.81,  3728.50,  3345.06 
65,  2541.50,  3133.88,  3728.56,  3344.38 
66,  2579.06,  3135.19,  3730.00,  3343.81 
67,  2619.50,  3135.19,  3727.56,  3340.12 
68,  2661.56,  3137.12,  3727.31,  3338.31 
69,  2701.69,  3137.25,  3726.88,  3335.00 
70,  2741.38,  3138.75,  3725.19,  3332.12 
71,  2779.44,  3140.88,  3732.69,  3328.56 
72,  2818.56,  3142.31,  3734.38,  3323.62 
73,  2853.75,  3144.00,  3735.25,  3318.38 
74,  2892.31,  3145.94,  3734.94,  3308.69 
75,  2932.44,  3148.69,  3735.31,  3294.94 
76,  2970.56,  3152.50,  3735.62,  3272.25 
77,  3011.31,  3159.56,  3737.81,  3226.12 
78,  3049.88,  3172.75,  3745.50,  3062.19 
79,  3091.50,  3193.94,  3762.88,  2755.19 
80,  3130.56,  3215.88,  3781.06,  2424.06 
81,  3169.31,  3239.56,  3799.06,  2076.31 
82,  3207.94,  3262.25,  3817.25,  1719.38 
83,  3246.75,  3286.75,  3836.31,  1353.81 
84,  3283.31,  3312.12,  3855.00,  993.81 
85,  3323.12,  3338.12,  3872.19,  648.81 
86,  3360.31,  3367.50,  3889.25,  342.62 
87,  3401.00,  3398.75,  3890.50,  123.81 
88,  3439.88,  3433.00,  3891.00,  24.88 
89,  3478.88,  3472.06,  3891.25,  6.38 
90,  3518.88,  3513.94,  3888.94,  6.44 
91,  3556.62,  3557.81,  3889.94,  6.81 
92,  3595.25,  3593.88,  3893.06,  7.38 
93,  3635.69,  3631.69,  3892.94,  6.94 
94,  3675.19,  3670.56,  3895.56,  6.38 
95,  3714.25,  3709.75,  3896.00,  7.12 
96,  3752.62,  3748.06,  3895.19,  6.94 
97,  3792.88,  3787.19,  3894.31,  7.56 
98,  3831.00,  3826.50,  3893.94,  7.56 
99,  3869.81,  3864.38,  3893.88,  7.38 
100,  3889.62,  3881.69,  3897.12,  6.69 
