refV = 3922
0,  6.81,  5.81,  3876.81,  5.06 
1,  43.62,  4.19,  3877.81,  4.88 
2,  79.88,  4.12,  3878.19,  5.12 
3,  118.81,  4.38,  3878.25,  6.38 
4,  156.50,  4.31,  3879.25,  5.19 
5,  193.69,  3.38,  3878.88,  5.62 
6,  235.56,  3.88,  3878.94,  4.56 
7,  276.00,  4.56,  3879.75,  5.06 
8,  315.12,  4.12,  3877.75,  4.69 
9,  354.19,  4.50,  3880.00,  4.06 
10,  394.12,  5.75,  3880.12,  4.81 
11,  432.31,  4.19,  3880.56,  4.06 
12,  471.06,  9.56,  3880.19,  4.50 
13,  509.25,  9.44,  3880.00,  4.75 
14,  547.00,  7.06,  3879.44,  4.75 
15,  586.75,  7.00,  3879.75,  4.06 
16,  624.88,  5.94,  3879.19,  4.81 
17,  664.25,  6.31,  3877.81,  4.69 
18,  705.25,  5.94,  3877.62,  4.62 
19,  745.50,  6.69,  3878.12,  5.44 
20,  784.81,  6.25,  3877.75,  4.44 
21,  823.19,  6.62,  3878.88,  5.12 
22,  860.12,  6.25,  3878.50,  5.19 
23,  896.75,  6.12,  3877.75,  4.69 
24,  935.25,  6.25,  3878.94,  4.25 
25,  970.00,  5.62,  3879.12,  5.50 
26,  1010.94,  6.31,  3878.94,  4.56 
27,  1056.56,  6.38,  3877.88,  5.56 
28,  1096.44,  6.69,  3875.19,  5.19 
29,  1136.00,  5.81,  3874.06,  4.50 
30,  1175.50,  5.38,  3877.62,  4.94 
31,  1213.56,  5.56,  3879.50,  4.62 
32,  1250.75,  5.94,  3883.50,  5.50 
33,  1288.44,  6.38,  3881.88,  4.94 
34,  1325.00,  7.19,  3880.06,  4.88 
35,  1363.50,  5.75,  3880.62,  4.94 
36,  1401.38,  6.56,  3880.69,  5.31 
37,  1448.81,  7.62,  3878.56,  4.62 
38,  1488.19,  6.38,  3878.44,  4.62 
39,  1527.12,  5.62,  3877.94,  4.94 
40,  1567.12,  6.75,  3875.44,  4.50 
41,  1605.00,  5.31,  3878.94,  4.44 
42,  1643.38,  4.88,  3880.00,  4.38 
43,  1679.12,  5.69,  3878.69,  4.31 
44,  1716.69,  9.00,  3880.38,  4.69 
45,  1754.31,  10.88,  3880.12,  4.62 
46,  1792.00,  9.62,  3879.75,  4.81 
47,  1833.62,  9.25,  3881.00,  4.06 
48,  1876.06,  9.00,  3880.94,  4.94 
49,  1918.19,  8.62,  3879.94,  5.75 
50,  1957.88,  7.94,  3881.06,  5.00 
51,  1995.06,  7.50,  3880.44,  4.81 
52,  2033.75,  6.31,  3880.69,  5.44 
53,  2070.94,  6.81,  3881.69,  4.75 
54,  2108.06,  12.69,  3881.12,  5.62 
55,  2145.31,  15.81,  3880.69,  4.56 
56,  2182.94,  13.75,  3880.69,  4.25 
57,  2223.81,  12.25,  3881.19,  5.25 
58,  2266.75,  10.31,  3881.44,  5.00 
59,  2307.00,  9.38,  3884.06,  5.12 
60,  2346.62,  9.12,  3882.50,  5.25 
61,  2381.62,  8.56,  3883.75,  4.25 
62,  2420.00,  9.75,  3882.25,  4.56 
63,  2456.62,  8.75,  3882.69,  4.81 
64,  2498.38,  8.56,  3883.19,  4.81 
65,  2535.81,  10.12,  3881.31,  4.75 
66,  2573.56,  9.12,  3880.50,  5.00 
67,  2614.62,  9.06,  3880.44,  4.06 
68,  2656.44,  9.94,  3879.56,  5.75 
69,  2697.06,  9.31,  3880.12,  4.62 
70,  2736.62,  10.69,  3881.94,  4.56 
71,  2773.19,  10.44,  3882.38,  4.81 
72,  2811.38,  8.50,  3885.38,  5.12 
73,  2848.12,  9.94,  3884.25,  4.50 
74,  2889.69,  10.38,  3883.00,  5.81 
75,  2927.62,  9.88,  3883.88,  4.75 
76,  2966.75,  10.00,  3883.50,  5.38 
77,  3007.12,  10.00,  3883.50,  5.62 
78,  3045.94,  8.69,  3883.38,  4.44 
79,  3087.00,  9.81,  3881.50,  5.06 
80,  3126.12,  10.19,  3882.56,  6.38 
81,  3163.62,  9.50,  3882.75,  5.06 
82,  3202.50,  9.94,  3882.19,  5.50 
83,  3241.06,  10.31,  3883.56,  5.62 
84,  3277.56,  8.88,  3883.88,  5.06 
85,  3317.06,  9.25,  3884.00,  5.31 
86,  3353.94,  9.69,  3882.00,  5.94 
87,  3394.25,  8.75,  3881.88,  3.69 
88,  3435.00,  9.50,  3880.75,  4.00 
89,  3474.81,  10.44,  3880.50,  5.06 
90,  3514.38,  10.81,  3877.81,  4.00 
91,  3551.88,  11.69,  3882.12,  4.94 
92,  3591.25,  13.88,  3883.06,  5.50 
93,  3628.94,  12.62,  3883.31,  4.69 
94,  3668.31,  13.25,  3884.25,  4.94 
95,  3710.69,  12.31,  3884.31,  5.56 
96,  3748.19,  12.94,  3883.69,  3.75 
97,  3788.00,  12.19,  3883.94,  5.25 
98,  3826.38,  11.06,  3883.62,  4.94 
99,  3847.69,  12.00,  3883.56,  4.94 
100,  3851.25,  11.12,  3884.69,  6.06 
